<svg width="64" height="64" viewBox="0 0 64 64" fill="none" xmlns="http://www.w3.org/2000/svg">
<path d="M8.91981 57.6024L3.78418 0H60.2162L55.0751 57.5933L31.9657 64L8.91981 57.6024Z" fill="#264DE4"/>
<path d="M50.6735 53.9262L55.067 4.70996H32V59.1032L50.6735 53.9262Z" fill="#2965F1"/>
<path d="M15.5575 26.0735L16.1907 33.1382H32V26.0735H15.5575ZM14.9274 18.8392H32V11.7744H14.2852L14.9274 18.8392ZM32 44.4213L31.969 44.4295L24.101 42.305L23.5982 36.6705H16.5062L17.496 47.7632L31.9675 51.7807L32 51.7715V44.4213Z" fill="#EBEBEB"/>
<path d="M31.9756 26.0735V33.1382H40.675L39.855 42.3005L31.9756 44.4272V51.7772L46.4586 47.7632L46.5648 46.5695L48.2248 27.9705L48.3973 26.0735L49.6727 11.7744H31.9756V18.8392H41.9305L41.2875 26.0735H31.9756Z" fill="white"/>
</svg>
